…
### Scoring by Round and Time of Day (IN PROGRESS)

``` r
df |>
  inner_join(df |>
  distinct(round_num, teetime) |>
  group_by(round_num) |>
  mutate(round_group_num = rank(teetime)) |>
  arrange(round_num, teetime), by = c("round_num", "teetime")) |>
  group_by(round_num, teetime) |>
  summarise(round_score = sum(round_score),
            .groups = "drop")
```

    ## # A tibble: 114 × 3
    ##    round_num teetime round_score
    ##        <dbl> <time>        <dbl>
    ##  1         1 08:00           145
    ##  2         1 08:12           231
    ##  3         1 08:24           226
    ##  4         1 08:36           222
    ##  5         1 08:48           226
    ##  6         1 09:00           216
    ##  7         1 09:12           218
    ##  8         1 09:24           223
    ##  9         1 09:36           225
    ## 10         1 09:48           218
    ## # ℹ 104 more rows
